register_file.vcd
$date
	Mon Jan 19 00:09:36 2026
$end
$version
	Icarus Verilog
$end
$timescale
	1ps
$end
$scope module register_file_tb $end
$var wire 64 ! read_data2 [63:0] $end
$var wire 64 " read_data1 [63:0] $end
$var parameter 32 # DATA_WIDTH $end
$var parameter 32 $ NUM_REGS $end
$var reg 1 % clk $end
$var reg 5 & read_register1 [4:0] $end
$var reg 5 ' read_register2 [4:0] $end
$var reg 1 ( reg_write $end
$var reg 64 ) write_data [63:0] $end
$var reg 5 * write_register [4:0] $end
$scope module dut $end
$var wire 1 % clk $end
$var wire 5 + read_register1 [4:0] $end
$var wire 5 , read_register2 [4:0] $end
$var wire 1 ( reg_write $end
$var wire 64 - write_data [63:0] $end
$var wire 5 . write_register [4:0] $end
$var wire 64 / read_data2 [63:0] $end
$var wire 64 0 read_data1 [63:0] $end
$var parameter 32 1 DATA_WIDTH $end
$var parameter 32 2 NUM_REGS $end
$upscope $end
$scope task check_reg $end
$var reg 64 3 expected_val [63:0] $end
$var reg 5 4 reg_idx [4:0] $end
$upscope $end
$scope task write_reg $end
$var reg 64 5 data [63:0] $end
$var reg 5 6 reg_idx [4:0] $end
$upscope $end
$upscope $end
$enddefinitions $end
$comment Show the parameter values. $end
$dumpall
b100000 2
b1000000 1
b100000 $
b1000000 #
$end
#0
$dumpvars
b0 6
b1111111111111111111111111111111111111111111111111111111111111111 5
bx 4
bx 3
b0 0
b0 /
b0 .
b0 -
b0 ,
b0 +
b0 *
b0 )
0(
b0 '
b0 &
0%
b0 "
b0 !
$end
#5000
1%
#10000
b1111111111111111111111111111111111111111111111111111111111111111 )
b1111111111111111111111111111111111111111111111111111111111111111 -
1(
0%
#15000
1%
#20000
b0 3
b0 4
0(
0%
#21000
b1101111010101101101111101110111111001010111111101011101010111110 5
b1 6
#25000
1%
#30000
b1101111010101101101111101110111111001010111111101011101010111110 )
b1101111010101101101111101110111111001010111111101011101010111110 -
b1 *
b1 .
1(
0%
#35000
1%
#40000
b1001000110100010101100111100010011010101111001101111011110000 5
b10 6
0(
0%
#45000
1%
#50000
b1001000110100010101100111100010011010101111001101111011110000 )
b1001000110100010101100111100010011010101111001101111011110000 -
b10 *
b10 .
1(
0%
#55000
1%
#60000
b1101111010101101101111101110111111001010111111101011101010111110 "
b1101111010101101101111101110111111001010111111101011101010111110 0
b1 &
b1 +
b1101111010101101101111101110111111001010111111101011101010111110 3
b1 4
0(
0%
#61000
b1001000110100010101100111100010011010101111001101111011110000 "
b1001000110100010101100111100010011010101111001101111011110000 0
b10 &
b10 +
b1001000110100010101100111100010011010101111001101111011110000 3
b10 4
#65000
1%
#70000
b1001000110100010101100111100010011010101111001101111011110000 !
b1001000110100010101100111100010011010101111001101111011110000 /
b1101111010101101101111101110111111001010111111101011101010111110 "
b1101111010101101101111101110111111001010111111101011101010111110 0
b10 '
b10 ,
b1 &
b1 +
0%
#75000
1%
#80000
b0 )
b0 -
b1 *
b1 .
0%
#85000
1%
#90000
b1101111010101101101111101110111111001010111111101011101010111110 3
b1 4
0%
